Chapter 3 Data | New York City Taxi and For-Hire Vehicle Passengers Behavior Analysis
…
Next, we used a package naniar to produce a summary of the datasets’ missing value counts and percent missing.

## # A tibble: 22 × 3
##    variable              n_miss pct_miss
##    <chr>                  <int>    <dbl>
##  1 ehail_fee            3627880  100    
##  2 trip_type            3563502   98.2  
##  3 airport_fee           205997    5.68 
##  4 store_and_fwd_flag    141618    3.90 
##  5 RatecodeID            141618    3.90 
##  6 passenger_count       141618    3.90 
##  7 congestion_surcharge  141618    3.90 
##  8 payment_type            9276    0.256
##  9 VendorID                   0    0    
## 10 pickup_datetime            0    0    
## # … with 12 more rows

## # A tibble: 25 × 3
##    variable              n_miss pct_miss
##    <chr>                  <int>    <dbl>
##  1 originating_base_num 4713868     26.6
##  2 on_scene_datetime    4713865     26.6
##  3 hvfhs_license_num          0      0  
##  4 dispatching_base_num       0      0  
##  5 request_datetime           0      0  
##  6 pickup_datetime            0      0  
##  7 dropoff_datetime           0      0  
##  8 PULocationID               0      0  
##  9 DOLocationID               0      0  
## 10 trip_miles                 0      0  
## # … with 15 more rows
…
